{
    "titulo": "DavidC's",
    "email": "d@dcaballero.net",
    "nombre_corto": "DavidC", 
    "pagina_autor": "https://dcaballero.net", 
    "facebook": "https://facebook.com",
    "twitter": "https://twitter.com",
    "instagram": "https://instagram.com",
    "tumblr": "https://tumblr.com",
    "equipo_trabajo": []
}